﻿{
  "iisSettings": {
    "windowsAuthentication": false,
    "anonymousAuthentication": true,
    "iisExpress": {
      "applicationUrl": "http://localhost:48348",
      "sslPort": 44376
    }
  },
  "profiles": {
    "LiveChat": {
      "commandName": "Project",
      "launchBrowser": true,
      "applicationUrl": "https://localhost:7034;http://localhost:5056",
      "environmentVariables": {
        "ASPNETCORE_ENVIRONMENT": "Development",
      }
    },
    "IIS Express": {
      "commandName": "IISExpress",
      "launchBrowser": true,
      "environmentVariables": {
        "ASPNETCORE_ENVIRONMENT": "Development",
      }
    }
  }
}
